[
    {
        "key": "group_572c20ff8c4b0",
        "title": "Google Analytics",
        "fields": [
            {
                "key": "field_572c20ff90d2f",
                "label": "Campaign Source (utm_source)",
                "name": "ga_utm_source",
                "type": "text",
                "instructions": "Use utm_source to identify a search engine, newsletter name, or other source.\r\nExample: utm_source=google",
                "required": 1,
                "conditional_logic": 0,
                "wrapper": {
                    "width": "",
                    "class": "",
                    "id": ""
                },
                "default_value": "omneoapp",
                "placeholder": "",
                "prepend": "",
                "append": "",
                "maxlength": "",
                "readonly": 0,
                "disabled": 0
            },
            {
                "key": "field_572c20ff90dac",
                "label": "Campaign Medium (utm_medium)",
                "name": "ga_utm_medium",
                "type": "text",
                "instructions": "Use utm_medium to identify a medium such as email or cost-per- click.\r\nExample: utm_medium=cpc",
                "required": 1,
                "conditional_logic": 0,
                "wrapper": {
                    "width": "",
                    "class": "",
                    "id": ""
                },
                "default_value": "appconsumer",
                "placeholder": "",
                "prepend": "",
                "append": "",
                "maxlength": "",
                "readonly": 0,
                "disabled": 0
            },
            {
                "key": "field_572fe9198853d",
                "label": "Campaign Name (utm_campaign)",
                "name": "ga_utm_campaign",
                "type": "text",
                "instructions": "Used for keyword analysis. Use utm_campaign to identify a specific product promotion or strategic campaign.\r\nExample: utm_campaign=spring_sale",
                "required": 1,
                "conditional_logic": 0,
                "wrapper": {
                    "width": "",
                    "class": "",
                    "id": ""
                },
                "default_value": "app",
                "placeholder": "",
                "prepend": "",
                "append": "",
                "maxlength": "",
                "readonly": 0,
                "disabled": 0
            }
        ],
        "location": [
            [
                {
                    "param": "options_page",
                    "operator": "==",
                    "value": "core-settings"
                }
            ]
        ],
        "menu_order": 0,
        "position": "normal",
        "style": "default",
        "label_placement": "top",
        "instruction_placement": "label",
        "hide_on_screen": "",
        "active": 1,
        "description": ""
    }
]